{
    "tag": "manifest",
    "xmlns:android": "http://schemas.android.com/apk/res/android",
    "package": "{{APPLICATION_ID}}",
    "xmlns:tools": "http://schemas.android.com/tools",
    "children": [
        {
            "tag": "uses-feature",
            "android:name": "android.hardware.touchscreen",
            "android:required": false
        },
        {
            "tag": "uses-feature",
            "android:name": "android.software.leanback",
            "android:required": true
        },
        {
            "tag": "application",
            "android:name": ".MainApplication",
            "android:label": "@string/app_name",
            "android:icon": "@mipmap/ic_launcher",
            "tools:replace": "android:appComponentFactory",
            "android:appComponentFactory": "appComponentFactoryFix",
            "android:supportsRtl": true,
            "tools:targetApi": 30,
            "android:usesCleartextTraffic": true,
            "android:theme": "@style/AppTheme",
            "children": [
                {
                    "tag": "activity",
                    "android:name": ".SplashActivity",
                    "android:screenOrientation": "landscape",
                    "android:noHistory": true,
                    "android:launchMode": "singleTask",
                    "android:banner": "@drawable/ic_logo",
                    "android:icon": "@drawable/ic_logo",
                    "android:logo": "@drawable/ic_logo",
                    "android:theme": "@style/SplashTheme",
                    "android:exported": true,
                    "children": [
                        {
                            "tag": "intent-filter",
                            "children": [
                                {
                                    "tag": "action",
                                    "android:name": "android.intent.action.MAIN"
                                },
                                {
                                    "tag": "category",
                                    "android:name": "android.intent.category.LEANBACK_LAUNCHER"
                                }
                            ]
                        }
                    ]
                },
                {
                    "tag": "activity",
                    "android:name": ".MainActivity",
                    "android:banner": "@drawable/ic_logo",
                    "android:icon": "@drawable/ic_logo",
                    "android:screenOrientation": "landscape",
                    "android:logo": "@drawable/ic_logo",
                    "android:launchMode": "singleTask",
                    "android:exported": true,
                    "children": [
                        {
                            "tag": "intent-filter",
                            "children": [
                                {
                                    "tag": "action",
                                    "android:name": "android.intent.action.VIEW"
                                },
                                {
                                    "tag": "category",
                                    "android:name": "android.intent.category.DEFAULT"
                                },
                                {
                                    "tag": "category",
                                    "android:name": "android.intent.category.BROWSABLE"
                                }
                            ]
                        }
                    ]
                },
                {
                    "tag": "activity",
                    "android:name": "com.facebook.react.devsupport.DevSettingsActivity"
                }
            ]
        }
    ]
}
